\relax 
\providecommand\hyper@newdestlabel[2]{}
\providecommand\HyperFirstAtBeginDocument{\AtBeginDocument}
\HyperFirstAtBeginDocument{\ifx\hyper@anchor\@undefined
\global\let\oldcontentsline\contentsline
\gdef\contentsline#1#2#3#4{\oldcontentsline{#1}{#2}{#3}}
\global\let\oldnewlabel\newlabel
\gdef\newlabel#1#2{\newlabelxx{#1}#2}
\gdef\newlabelxx#1#2#3#4#5#6{\oldnewlabel{#1}{{#2}{#3}}}
\AtEndDocument{\ifx\hyper@anchor\@undefined
\let\contentsline\oldcontentsline
\let\newlabel\oldnewlabel
\fi}
\fi}
\global\let\hyper@last\relax 
\gdef\HyperFirstAtBeginDocument#1{#1}
\providecommand*\HyPL@Entry[1]{}
\HyPL@Entry{0<</S/D>>}
\newlabel{sec:NME}{{10}{1}{Nucleon matrix elements}{section.10}{}}
\@writefile{toc}{\contentsline {section}{\numberline {10}Nucleon matrix elements}{1}{section.10}}
\newlabel{sec:intro}{{10.1}{1}{Isovector and flavor diagonal charges of the nucleon}{subsection.10.1}{}}
\@writefile{toc}{\contentsline {subsection}{\numberline {10.1}Isovector and flavor diagonal charges of the nucleon}{1}{subsection.10.1}}
\citation{JLAB:2016}
\citation{JLAB:2016}
\citation{Ishikawa:2018rew}
\citation{Ishikawa:2018rew}
\citation{Frezzotti:2000nk,Frezzotti:2003ni,Alexandrou:2018egz}
\citation{Frezzotti:2000nk}
\citation{Frezzotti:2003ni}
\citation{Alexandrou:2018egz}
\citation{Bazavov:2012xda}
\citation{Bazavov:2012xda}
\citation{Aoki:2010dy}
\citation{Aoki:2010dy}
\@writefile{lof}{\contentsline {figure}{\numberline {2}{\ignorespaces The two- and three-point Feynman diagrams that need to be calculated to extract the matrix elements within ground state nucleons. (Left) the nucleon two-point function. (Middle) the connected three-point function with source-sink separation $\tau $ and operator insertion time slice $t$. (Right) the disconnected three-point function. }}{2}{figure.2}}
\newlabel{fig:feynman}{{2}{2}{The two- and three-point Feynman diagrams that need to be calculated to extract the matrix elements within ground state nucleons. (Left) the nucleon two-point function. (Middle) the connected three-point function with source-sink separation $\tau $ and operator insertion time slice $t$. (Right) the disconnected three-point function}{figure.2}{}}
\citation{Blum:2012uh}
\citation{Blum:2012uh}
\citation{Bali:2009hu}
\citation{Bali:2009hu}
\citation{Yoon:2016dij,Bhattacharya:2015wna,Gupta:2018qil}
\citation{Yoon:2016dij}
\citation{Bhattacharya:2015wna}
\citation{Gupta:2018qil}
\newlabel{sec:technical}{{10.1.1}{3}{Technical aspects of the calculations of NME}{subsubsection.10.1.1}{}}
\@writefile{toc}{\contentsline {subsubsection}{\numberline {10.1.1}Technical aspects of the calculations of NME}{3}{subsubsection.10.1.1}}
\newlabel{eq:2-3pt_TSM}{{2}{3}{Technical aspects of the calculations of NME}{equation.10.2}{}}
\citation{Yoon:2016dij}
\citation{Yoon:2016dij}
\citation{Gusken:1989ad}
\citation{Gusken:1989ad}
\citation{Bar:2017gqh}
\citation{Bar:2017gqh}
\newlabel{sec:ESC}{{10.1.2}{4}{Controlling excited-state contamination}{subsubsection.10.1.2}{}}
\@writefile{toc}{\contentsline {subsubsection}{\numberline {10.1.2}Controlling excited-state contamination}{4}{subsubsection.10.1.2}}
\newlabel{eq:nucl2pt}{{3}{4}{Controlling excited-state contamination}{equation.10.3}{}}
\newlabel{eq:nucl3pt}{{4}{4}{Controlling excited-state contamination}{equation.10.4}{}}
\newlabel{eq:3ptratio}{{5}{4}{Controlling excited-state contamination}{equation.10.5}{}}
\citation{Bali:2009hu}
\citation{Bali:2009hu}
\citation{Blum:2012uh}
\citation{Blum:2012uh}
\citation{Capitani:2015sba}
\citation{Capitani:2015sba}
\citation{Yoon:2016jzj}
\citation{Yoon:2016jzj}
\newlabel{eq:multistate}{{6}{5}{Controlling excited-state contamination}{equation.10.6}{}}
\citation{Maiani:1987by,Sommer:1989rf}
\citation{Maiani:1987by}
\citation{Sommer:1989rf}
\citation{Bouchard:2016heu}
\citation{Bouchard:2016heu}
\citation{Bouchard:2016heu}
\citation{Bouchard:2016heu}
\citation{Chambers:2014qaa,Chambers:2015bka}
\citation{Chambers:2014qaa}
\citation{Chambers:2015bka}
\citation{Berkowitz:2017gql,Chang:2018uxx}
\citation{Berkowitz:2017gql}
\citation{Chang:2018uxx}
\newlabel{eq:summation}{{8}{6}{Controlling excited-state contamination}{equation.10.8}{}}
\citation{Owen:2012ts}
\citation{Owen:2012ts}
\citation{Michael:1985ne,Luscher:1990ck,Blossier:2009kd}
\citation{Michael:1985ne}
\citation{Luscher:1990ck}
\citation{Blossier:2009kd}
\citation{Owen:2012ts,Dragos:2016rtx}
\citation{Owen:2012ts}
\citation{Dragos:2016rtx}
\citation{Bali:2014nma}
\citation{Bali:2014nma}
\citation{Jansen:1995ck,Luscher:1996sc}
\citation{Jansen:1995ck}
\citation{Luscher:1996sc}
\citation{Frezzotti:2003ni,Frezzotti:2003xj}
\citation{Frezzotti:2003ni}
\citation{Frezzotti:2003xj}
\citation{Capitani:2000xi,Bhattacharya:2005rb}
\citation{Capitani:2000xi}
\citation{Bhattacharya:2005rb}
\newlabel{sec:renorm}{{10.1.3}{7}{Renormalization and Symanzik improvement of local currents}{subsubsection.10.1.3}{}}
\@writefile{toc}{\contentsline {subsubsection}{\numberline {10.1.3}Renormalization and Symanzik improvement of local currents}{7}{subsubsection.10.1.3}}
\newlabel{eq_op_improv}{{11}{7}{Renormalization and Symanzik improvement of local currents}{equation.10.11}{}}
\citation{Bhattacharya:2016zcn}
\citation{Bhattacharya:2016zcn}
\citation{Blum:2014tka}
\citation{Blum:2014tka}
\citation{Korcyl:2016ugy}
\citation{Korcyl:2016ugy}
\citation{Sint:1997jx,Taniguchi:1998pf,Capitani:2000xi}
\citation{Capitani:2000xi}
\citation{Sint:1997jx}
\citation{Taniguchi:1998pf}
\citation{Alexandrou:2017hac,Green:2017keo}
\citation{Alexandrou:2017hac}
\citation{Green:2017keo}
\citation{Constantinou:2016ieh}
\citation{Constantinou:2016ieh}
\citation{Alexandrou:2017qyt,Bali:2017jyw}
\citation{Alexandrou:2017qyt}
\citation{Bali:2017jyw}
\citation{Dinter:2012tt}
\citation{Dinter:2012tt}
\citation{Fritzsch:2012wq,Bali:2016lvx}
\citation{Fritzsch:2012wq}
\citation{Bali:2016lvx}
\citation{Bhattacharya:2005rb}
\citation{Bhattacharya:2005rb}
\citation{Borsanyi:2012zs}
\citation{Borsanyi:2012zs}
\citation{Jenkins:1990jv}
\citation{Jenkins:1990jv}
\citation{Bernard:1992qa}
\citation{Bernard:1992qa}
\newlabel{sec:extrap}{{10.1.4}{9}{Extrapolations in $a$, $M_\pi $ and $M_\pi L$}{subsubsection.10.1.4}{}}
\@writefile{toc}{\contentsline {subsubsection}{\numberline {10.1.4}Extrapolations in $a$, $M_\pi $ and $M_\pi L$}{9}{subsubsection.10.1.4}}
\newlabel{eq:chi}{{15}{9}{Extrapolations in $a$, $M_\pi $ and $M_\pi L$}{equation.10.15}{}}
\citation{Beane:2004rf}
\citation{Beane:2004rf}
\citation{doi:10.1080/01621459.1995.10476572}
\citation{doi:10.1080/01621459.1995.10476572}
\citation{1100705}
\citation{1100705}
\citation{Bhattacharya:2011qm}
\citation{Bhattacharya:2011qm}
\citation{Mendenhall:2012tz,Brown:2017mhw}
\citation{Mendenhall:2012tz}
\citation{Brown:2017mhw}
\citation{Mund:2012fq}
\citation{Mund:2012fq}
\citation{Ademollo:1964sr,Donoghue:1990ti}
\citation{Ademollo:1964sr}
\citation{Donoghue:1990ti}
\citation{Bhattacharya:2011qm}
\citation{Bhattacharya:2011qm}
\citation{abBA,WilburnUCNB,Pocanic:2008pu}
\citation{abBA}
\citation{WilburnUCNB}
\citation{Pocanic:2008pu}
\citation{Bhattacharya:2011qm,Bhattacharya:2016zcn}
\citation{Bhattacharya:2016zcn}
\citation{Bhattacharya:2011qm}
\citation{Gonzalez-Alonso:2013ura}
\citation{Gonzalez-Alonso:2013ura}
\newlabel{sec:rating}{{10.2}{11}{The procedure for rating the calculations}{subsection.10.2}{}}
\@writefile{toc}{\contentsline {subsection}{\numberline {10.2}The procedure for rating the calculations }{11}{subsection.10.2}}
\newlabel{sec:averaging}{{10.3}{11}{The procedure for constructing final averages}{subsection.10.3}{}}
\@writefile{toc}{\contentsline {subsection}{\numberline {10.3}The procedure for constructing final averages}{11}{subsection.10.3}}
\newlabel{sec:isovector}{{10.4}{11}{Isovector charges}{subsection.10.4}{}}
\@writefile{toc}{\contentsline {subsection}{\numberline {10.4}Isovector charges}{11}{subsection.10.4}}
\citation{Gupta:2018qil}
\citation{Gupta:2018qil}
\citation{Chang:2018uxx}
\citation{Chang:2018uxx}
\citation{Berkowitz:2017gql}
\citation{Berkowitz:2017gql}
\citation{Bhattacharya:2016zcn}
\citation{Bhattacharya:2016zcn}
\citation{Ishikawa:2018rew}
\citation{Ishikawa:2018rew}
\citation{Liang:2018pis}
\citation{Liang:2018pis}
\citation{Yamanaka:2018uud}
\citation{Yamanaka:2018uud}
\citation{Green:2012ud}
\citation{Green:2012ud}
\citation{Bratt:2010jn}
\citation{Bratt:2010jn}
\citation{Yamazaki:2009zq}
\citation{Yamazaki:2009zq}
\citation{Yamazaki:2008py}
\citation{Yamazaki:2008py}
\citation{Edwards:2005ym}
\citation{Edwards:2005ym}
\citation{Capitani:2017qpc}
\citation{Capitani:2017qpc}
\citation{Alexandrou:2017hac}
\citation{Alexandrou:2017hac}
\citation{Abdel-Rehim:2015owa}
\citation{Abdel-Rehim:2015owa}
\citation{Bali:2014nma}
\citation{Bali:2014nma}
\citation{Horsley:2013ayv}
\citation{Horsley:2013ayv}
\citation{Capitani:2012gj}
\citation{Capitani:2012gj}
\citation{Alexandrou:2011nr}
\citation{Alexandrou:2011nr}
\citation{Lin:2008uz}
\citation{Lin:2008uz}
\citation{Khan:2006de}
\citation{Khan:2006de}
\citation{Gupta:2018qil}
\citation{Gupta:2018qil}
\citation{Bhattacharya:2016zcn}
\citation{Bhattacharya:2016zcn}
\citation{Bhattacharya:2013ehc}
\citation{Bhattacharya:2013ehc}
\citation{Yamanaka:2018uud}
\citation{Yamanaka:2018uud}
\citation{Green:2012ej}
\citation{Green:2012ej}
\citation{Alexandrou:2017qyt}
\citation{Alexandrou:2017qyt}
\citation{Abdel-Rehim:2015owa}
\citation{Abdel-Rehim:2015owa}
\citation{Bali:2014nma}
\citation{Bali:2014nma}
\citation{Gupta:2018qil}
\citation{Gupta:2018qil}
\citation{Bhattacharya:2016zcn}
\citation{Bhattacharya:2016zcn}
\citation{Bhattacharya:2015wna,Bhattacharya:2015esa}
\citation{Bhattacharya:2015wna}
\citation{Bhattacharya:2015esa}
\citation{Bhattacharya:2013ehc}
\citation{Bhattacharya:2013ehc}
\citation{Yamanaka:2018uud}
\citation{Yamanaka:2018uud}
\citation{Green:2012ej}
\citation{Green:2012ej}
\citation{Aoki:2010xg}
\citation{Aoki:2010xg}
\citation{Alexandrou:2017qyt}
\citation{Alexandrou:2017qyt}
\citation{Bali:2014nma}
\citation{Bali:2014nma}
\citation{Abdel-Rehim:2015owa}
\citation{Abdel-Rehim:2015owa}
\citation{Lin:2008uz}
\citation{Lin:2008uz}
\newlabel{sec:gA-IV}{{10.4.1}{12}{Results for $g_A^{u-d}$}{subsubsection.10.4.1}{}}
\@writefile{toc}{\contentsline {subsubsection}{\numberline {10.4.1}Results for $g_A^{u-d}$}{12}{subsubsection.10.4.1}}
\@writefile{lot}{\contentsline {table}{\numberline {2}{\ignorespaces Overview of results for $g_A$.}}{12}{table.2}}
\@writefile{lof}{\contentsline {figure}{\numberline {3}{\ignorespaces  Lattice results and FLAG averages at $N_f = 2$, $2+1$, and $2+1+1$ for $g_A$.}}{13}{figure.3}}
\newlabel{fig:ga}{{3}{13}{Lattice results and FLAG averages at $N_f = 2$, $2+1$, and $2+1+1$ for $g_A$}{figure.3}{}}
\@writefile{lof}{\contentsline {figure}{\numberline {4}{\ignorespaces  Lattice results and FLAG averages at $N_f = 2$, $2+1$, and $2+1+1$ for $g_S$.}}{13}{figure.4}}
\newlabel{fig:gs}{{4}{13}{Lattice results and FLAG averages at $N_f = 2$, $2+1$, and $2+1+1$ for $g_S$}{figure.4}{}}
\@writefile{lot}{\contentsline {table}{\numberline {3}{\ignorespaces Overview of results for $g_S$.}}{14}{table.3}}
\@writefile{lof}{\contentsline {figure}{\numberline {5}{\ignorespaces  Lattice results and FLAG averages at $N_f = 2$, $2+1$, and $2+1+1$ for $g_T$.}}{14}{figure.5}}
\newlabel{fig:gt}{{5}{14}{Lattice results and FLAG averages at $N_f = 2$, $2+1$, and $2+1+1$ for $g_T$}{figure.5}{}}
\newlabel{sec:gS-IV}{{10.4.2}{14}{Results for $g_S^{u-d}$}{subsubsection.10.4.2}{}}
\@writefile{toc}{\contentsline {subsubsection}{\numberline {10.4.2}Results for $g_S^{u-d}$}{14}{subsubsection.10.4.2}}
\newlabel{sec:gT-IV}{{10.4.3}{14}{Results for $g_T^{u-d}$}{subsubsection.10.4.3}{}}
\@writefile{toc}{\contentsline {subsubsection}{\numberline {10.4.3}Results for $g_T^{u-d}$}{14}{subsubsection.10.4.3}}
\newlabel{sec:FDcharges}{{10.5}{14}{Flavor Diagonal Charges}{subsection.10.5}{}}
\@writefile{toc}{\contentsline {subsection}{\numberline {10.5}Flavor Diagonal Charges}{14}{subsection.10.5}}
\@writefile{lot}{\contentsline {table}{\numberline {4}{\ignorespaces Overview of results for $g_T$.}}{15}{table.4}}
\newlabel{eq:gSdef}{{22}{15}{Flavor Diagonal Charges}{equation.10.22}{}}
\citation{Ashman:1987hv}
\citation{Ashman:1987hv}
\citation{Ji:1996ek}
\citation{Ji:1996ek}
\citation{Jaffe:1989jz}
\citation{Jaffe:1989jz}
\citation{Bhattacharya:2015wna,Pospelov:2005pr}
\citation{Bhattacharya:2015wna}
\citation{Pospelov:2005pr}
\citation{Baker:2006ts}
\citation{Baker:2006ts}
\citation{Dudek:2012vr,Ye:2016prn}
\citation{Dudek:2012vr}
\citation{Ye:2016prn}
\citation{Bhattacharya:2015wna,Radici:2018iag,Lin:2017stx}
\citation{Bhattacharya:2015wna}
\citation{Radici:2018iag}
\citation{Lin:2017stx}
\newlabel{eq:gAdef}{{23}{16}{Flavor Diagonal Charges}{equation.10.23}{}}
\newlabel{eq:Ji}{{24}{16}{Flavor Diagonal Charges}{equation.10.24}{}}
\newlabel{eq:gTdef}{{25}{16}{Flavor Diagonal Charges}{equation.10.25}{}}
\citation{Lin:2018obj}
\citation{Lin:2018obj}
\citation{Liang:2018pis}
\citation{Liang:2018pis}
\citation{Gong:2015iir}
\citation{Gong:2015iir}
\citation{Engelhardt:2012gd}
\citation{Engelhardt:2012gd}
\citation{Alexandrou:2017oeh}
\citation{Alexandrou:2017oeh}
\citation{Yamanaka:2018uud}
\citation{Yamanaka:2018uud}
\citation{Yang:2015uis}
\citation{Yang:2015uis}
\citation{Bali:2016lvx}
\citation{Bali:2016lvx}
\citation{Abdel-Rehim:2016won}
\citation{Abdel-Rehim:2016won}
\citation{Yamanaka:2018uud}
\citation{Yamanaka:2018uud}
\citation{Yang:2015uis}
\citation{Yang:2015uis}
\citation{Oksuzian:2012rzb}
\citation{Oksuzian:2012rzb}
\citation{Gong:2013vja}
\citation{Gong:2013vja}
\citation{Engelhardt:2012gd}
\citation{Engelhardt:2012gd}
\citation{Bali:2016lvx}
\citation{Bali:2016lvx}
\citation{Abdel-Rehim:2016won}
\citation{Abdel-Rehim:2016won}
\citation{Ling:2017jyz}
\citation{Ling:2017jyz}
\citation{Alexandrou:2017xwd}
\citation{Alexandrou:2017xwd}
\citation{Alexandrou:2014sha}
\citation{Alexandrou:2014sha}
\citation{Durr:2015dna}
\citation{Durr:2015dna}
\citation{Oksuzian:2012rzb}
\citation{Oksuzian:2012rzb}
\citation{Durr:2011mp}
\citation{Durr:2011mp}
\citation{Horsley:2011wr}
\citation{Horsley:2011wr}
\citation{Bali:2012qs}
\citation{Bali:2012qs}
\citation{Gupta:2018lvp}
\citation{Gupta:2018lvp}
\citation{Bhattacharya:2016zcn}
\citation{Bhattacharya:2016zcn}
\citation{Bhattacharya:2015wna,Bhattacharya:2015esa}
\citation{Bhattacharya:2015wna}
\citation{Bhattacharya:2015esa}
\citation{Alexandrou:2017qyt}
\citation{Alexandrou:2017qyt}
\newlabel{sec:gA-FD}{{10.5.1}{17}{Results for $g_A^{u,d,s}$}{subsubsection.10.5.1}{}}
\@writefile{toc}{\contentsline {subsubsection}{\numberline {10.5.1}Results for $g_A^{u,d,s}$}{17}{subsubsection.10.5.1}}
\@writefile{lot}{\contentsline {table}{\numberline {5}{\ignorespaces Overview of results for $g^q_A$. $^\S  $ Assumed $Z_A^{n.s.}=Z_A^{s}$.}}{17}{table.5}}
\newlabel{sec:gS-FD}{{10.5.2}{17}{Results for $g_S^{u,d,s}$ from direct calculations of the matrix elements}{subsubsection.10.5.2}{}}
\@writefile{toc}{\contentsline {subsubsection}{\numberline {10.5.2}Results for $g_S^{u,d,s}$ from direct calculations of the matrix elements}{17}{subsubsection.10.5.2}}
\newlabel{sec:gS-FD-FH}{{10.5.3}{17}{Results for $g_S^{u,d}$ using the Feynman-Hellmann theorem}{subsubsection.10.5.3}{}}
\@writefile{toc}{\contentsline {subsubsection}{\numberline {10.5.3}Results for $g_S^{u,d}$ using the Feynman-Hellmann theorem}{17}{subsubsection.10.5.3}}
\newlabel{sec:gT-FD}{{10.5.4}{17}{Results for $g_T^{u,d,s}$}{subsubsection.10.5.4}{}}
\@writefile{toc}{\contentsline {subsubsection}{\numberline {10.5.4}Results for $g_T^{u,d,s}$}{17}{subsubsection.10.5.4}}
\@writefile{lot}{\contentsline {table}{\numberline {6}{\ignorespaces Overview of results for $\sigma _{\pi N}$. All studies have leading $O(a)$ discretisation errors.$^\ddag  $ In this partially quenched analysis, the criteria are applied to the unity points.}}{18}{table.6}}
\@writefile{lot}{\contentsline {table}{\numberline {7}{\ignorespaces Overview of results for $\sigma _s/f_{T_s}$. All studies have leading $O(a)$ discretisation errors. $^\ddag  $ In this partially quenched analysis, the criteria are applied to the unity points. }}{18}{table.7}}
\@writefile{lot}{\contentsline {table}{\numberline {8}{\ignorespaces Overview of results for $\sigma _{\pi N}$.}}{19}{table.8}}
\@writefile{lot}{\contentsline {table}{\numberline {9}{\ignorespaces Overview of results for $g^q_T$. $^\S  $ Assumed $Z_T^{n.s.}=Z_T^{s}$. $^\P  $ Disconnected terms omitted.}}{19}{table.9}}
\citation{Gupta:2018qil}
\citation{Gupta:2018qil}
\citation{Bhattacharya:2016zcn}
\citation{Bhattacharya:2016zcn}
\citation{Bhattacharya:2015wna,Bhattacharya:2015esa}
\citation{Bhattacharya:2015wna}
\citation{Bhattacharya:2015esa}
\citation{Bhattacharya:2013ehc}
\citation{Bhattacharya:2013ehc}
\citation{Yamanaka:2018uud}
\citation{Yamanaka:2018uud}
\citation{Green:2012ej}
\citation{Green:2012ej}
\citation{Aoki:2010xg}
\citation{Aoki:2010xg}
\citation{Alexandrou:2017qyt}
\citation{Alexandrou:2017qyt}
\citation{Bali:2014nma}
\citation{Bali:2014nma}
\citation{Abdel-Rehim:2015owa}
\citation{Abdel-Rehim:2015owa}
\citation{Lin:2008uz}
\citation{Lin:2008uz}
\citation{Gupta:2018qil}
\citation{Gupta:2018qil}
\citation{Bhattacharya:2016zcn}
\citation{Bhattacharya:2016zcn}
\citation{Bhattacharya:2015wna,Bhattacharya:2015esa}
\citation{Bhattacharya:2015wna}
\citation{Bhattacharya:2015esa}
\citation{Bhattacharya:2013ehc}
\citation{Bhattacharya:2013ehc}
\citation{Yamanaka:2018uud}
\citation{Yamanaka:2018uud}
\citation{Green:2012ej}
\citation{Green:2012ej}
\citation{Aoki:2010xg}
\citation{Aoki:2010xg}
\citation{Alexandrou:2017qyt}
\citation{Alexandrou:2017qyt}
\citation{Bali:2014nma}
\citation{Bali:2014nma}
\citation{Abdel-Rehim:2015owa}
\citation{Abdel-Rehim:2015owa}
\citation{Lin:2008uz}
\citation{Lin:2008uz}
\citation{Gupta:2018qil}
\citation{Gupta:2018qil}
\citation{Bhattacharya:2016zcn}
\citation{Bhattacharya:2016zcn}
\citation{Bhattacharya:2015wna,Bhattacharya:2015esa}
\citation{Bhattacharya:2015wna}
\citation{Bhattacharya:2015esa}
\citation{Bhattacharya:2013ehc}
\citation{Bhattacharya:2013ehc}
\citation{Yamanaka:2018uud}
\citation{Yamanaka:2018uud}
\citation{Green:2012ej}
\citation{Green:2012ej}
\citation{Aoki:2010xg}
\citation{Aoki:2010xg}
\citation{Alexandrou:2017qyt}
\citation{Alexandrou:2017qyt}
\citation{Bali:2014nma}
\citation{Bali:2014nma}
\citation{Abdel-Rehim:2015owa}
\citation{Abdel-Rehim:2015owa}
\citation{Lin:2008uz}
\citation{Lin:2008uz}
\citation{Gupta:2018qil}
\citation{Gupta:2018qil}
\citation{Bhattacharya:2016zcn}
\citation{Bhattacharya:2016zcn}
\citation{Bhattacharya:2015wna,Bhattacharya:2015esa}
\citation{Bhattacharya:2015wna}
\citation{Bhattacharya:2015esa}
\citation{Bhattacharya:2013ehc}
\citation{Bhattacharya:2013ehc}
\citation{Yamanaka:2018uud}
\citation{Yamanaka:2018uud}
\citation{Green:2012ej}
\citation{Green:2012ej}
\citation{Aoki:2010xg}
\citation{Aoki:2010xg}
\citation{Alexandrou:2017qyt}
\citation{Alexandrou:2017qyt}
\citation{Bali:2014nma}
\citation{Bali:2014nma}
\citation{Abdel-Rehim:2015owa}
\citation{Abdel-Rehim:2015owa}
\citation{Lin:2008uz}
\citation{Lin:2008uz}
\citation{Gupta:2018qil}
\citation{Gupta:2018qil}
\citation{Bhattacharya:2016zcn}
\citation{Bhattacharya:2016zcn}
\citation{Bhattacharya:2015wna,Bhattacharya:2015esa}
\citation{Bhattacharya:2015wna}
\citation{Bhattacharya:2015esa}
\citation{Bhattacharya:2013ehc}
\citation{Bhattacharya:2013ehc}
\citation{Yamanaka:2018uud}
\citation{Yamanaka:2018uud}
\citation{Green:2012ej}
\citation{Green:2012ej}
\citation{Aoki:2010xg}
\citation{Aoki:2010xg}
\citation{Alexandrou:2017qyt}
\citation{Alexandrou:2017qyt}
\citation{Bali:2014nma}
\citation{Bali:2014nma}
\citation{Abdel-Rehim:2015owa}
\citation{Abdel-Rehim:2015owa}
\citation{Lin:2008uz}
\citation{Lin:2008uz}
\citation{Gupta:2018qil}
\citation{Gupta:2018qil}
\citation{Bhattacharya:2016zcn}
\citation{Bhattacharya:2016zcn}
\citation{Bhattacharya:2015wna,Bhattacharya:2015esa}
\citation{Bhattacharya:2015wna}
\citation{Bhattacharya:2015esa}
\citation{Bhattacharya:2013ehc}
\citation{Bhattacharya:2013ehc}
\citation{Yamanaka:2018uud}
\citation{Yamanaka:2018uud}
\citation{Green:2012ej}
\citation{Green:2012ej}
\citation{Aoki:2010xg}
\citation{Aoki:2010xg}
\citation{Alexandrou:2017qyt}
\citation{Alexandrou:2017qyt}
\citation{Bali:2014nma}
\citation{Bali:2014nma}
\citation{Abdel-Rehim:2015owa}
\citation{Abdel-Rehim:2015owa}
\citation{Lin:2008uz}
\citation{Lin:2008uz}
\@writefile{toc}{\contentsline {subsection}{\numberline {.1}Notes to section \ref  {sec:NME} on nucleon matrix elements}{20}{subsection.Alph0.1}}
\@writefile{lot}{\contentsline {table}{\numberline {10}{\ignorespaces Summary of simulated lattice actions.}}{20}{table.10}}
\@writefile{lot}{\contentsline {table}{\numberline {11}{\ignorespaces Continuum extrapolations/estimation of lattice artifacts in determinations of $g_T$.}}{21}{table.11}}
\@writefile{lot}{\contentsline {table}{\numberline {12}{\ignorespaces Chiral extrapolation/minimum pion mass in determinations of $g_T$.}}{22}{table.12}}
\@writefile{lot}{\contentsline {table}{\numberline {13}{\ignorespaces Finite volume effects in determinations of $g_T$.}}{23}{table.13}}
\@writefile{lot}{\contentsline {table}{\numberline {14}{\ignorespaces Running and matching in determinations of $g_T$.}}{24}{table.14}}
\@writefile{lot}{\contentsline {table}{\numberline {15}{\ignorespaces Estimation of excited state artifacts in determinations of $g_T$.}}{25}{table.15}}
\bibdata{FLAG}
\bibcite{JLAB:2016}{{1}{}{{}}{{}}}
\bibcite{Ishikawa:2018rew}{{2}{}{{}}{{}}}
\bibcite{Frezzotti:2000nk}{{3}{}{{}}{{}}}
\bibcite{Frezzotti:2003ni}{{4}{}{{}}{{}}}
\bibcite{Alexandrou:2018egz}{{5}{}{{}}{{}}}
\bibcite{Bazavov:2012xda}{{6}{}{{}}{{}}}
\bibcite{Aoki:2010dy}{{7}{}{{}}{{}}}
\bibcite{Blum:2012uh}{{8}{}{{}}{{}}}
\bibcite{Bali:2009hu}{{9}{}{{}}{{}}}
\bibcite{Yoon:2016dij}{{10}{}{{}}{{}}}
\bibcite{Bhattacharya:2015wna}{{11}{}{{}}{{}}}
\bibcite{Gupta:2018qil}{{12}{}{{}}{{}}}
\bibcite{Gusken:1989ad}{{13}{}{{}}{{}}}
\bibcite{Bar:2017gqh}{{14}{}{{}}{{}}}
\bibcite{Capitani:2015sba}{{15}{}{{}}{{}}}
\bibcite{Yoon:2016jzj}{{16}{}{{}}{{}}}
\bibcite{Maiani:1987by}{{17}{}{{}}{{}}}
\bibcite{Sommer:1989rf}{{18}{}{{}}{{}}}
\bibcite{Bouchard:2016heu}{{19}{}{{}}{{}}}
\bibcite{Chambers:2014qaa}{{20}{}{{}}{{}}}
\bibcite{Chambers:2015bka}{{21}{}{{}}{{}}}
\bibcite{Berkowitz:2017gql}{{22}{}{{}}{{}}}
\bibcite{Chang:2018uxx}{{23}{}{{}}{{}}}
\bibcite{Owen:2012ts}{{24}{}{{}}{{}}}
\bibcite{Michael:1985ne}{{25}{}{{}}{{}}}
\bibcite{Luscher:1990ck}{{26}{}{{}}{{}}}
\bibcite{Blossier:2009kd}{{27}{}{{}}{{}}}
\bibcite{Dragos:2016rtx}{{28}{}{{}}{{}}}
\bibcite{Bali:2014nma}{{29}{}{{}}{{}}}
\bibcite{Jansen:1995ck}{{30}{}{{}}{{}}}
\bibcite{Luscher:1996sc}{{31}{}{{}}{{}}}
\bibcite{Frezzotti:2003xj}{{32}{}{{}}{{}}}
\bibcite{Capitani:2000xi}{{33}{}{{}}{{}}}
\bibcite{Bhattacharya:2005rb}{{34}{}{{}}{{}}}
\bibcite{Bhattacharya:2016zcn}{{35}{}{{}}{{}}}
\bibcite{Blum:2014tka}{{36}{}{{}}{{}}}
\bibcite{Korcyl:2016ugy}{{37}{}{{}}{{}}}
\bibcite{Sint:1997jx}{{38}{}{{}}{{}}}
\bibcite{Taniguchi:1998pf}{{39}{}{{}}{{}}}
\bibcite{Alexandrou:2017hac}{{40}{}{{}}{{}}}
\bibcite{Green:2017keo}{{41}{}{{}}{{}}}
\bibcite{Constantinou:2016ieh}{{42}{}{{}}{{}}}
\bibcite{Alexandrou:2017qyt}{{43}{}{{}}{{}}}
\bibcite{Bali:2017jyw}{{44}{}{{}}{{}}}
\bibcite{Dinter:2012tt}{{45}{}{{}}{{}}}
\bibcite{Fritzsch:2012wq}{{46}{}{{}}{{}}}
\bibcite{Bali:2016lvx}{{47}{}{{}}{{}}}
\bibcite{Borsanyi:2012zs}{{48}{}{{}}{{}}}
\bibcite{Jenkins:1990jv}{{49}{}{{}}{{}}}
\bibcite{Bernard:1992qa}{{50}{}{{}}{{}}}
\bibcite{Beane:2004rf}{{51}{}{{}}{{}}}
\bibcite{doi:10.1080/01621459.1995.10476572}{{52}{}{{}}{{}}}
\bibcite{1100705}{{53}{}{{}}{{}}}
\bibcite{Bhattacharya:2011qm}{{54}{}{{}}{{}}}
\bibcite{Mendenhall:2012tz}{{55}{}{{}}{{}}}
\bibcite{Brown:2017mhw}{{56}{}{{}}{{}}}
\bibcite{Mund:2012fq}{{57}{}{{}}{{}}}
\bibcite{Ademollo:1964sr}{{58}{}{{}}{{}}}
\bibcite{Donoghue:1990ti}{{59}{}{{}}{{}}}
\bibcite{abBA}{{60}{}{{}}{{}}}
\bibcite{WilburnUCNB}{{61}{}{{}}{{}}}
\bibcite{Pocanic:2008pu}{{62}{}{{}}{{}}}
\bibcite{Gonzalez-Alonso:2013ura}{{63}{}{{}}{{}}}
\bibcite{Liang:2018pis}{{64}{}{{}}{{}}}
\bibcite{Yamanaka:2018uud}{{65}{}{{}}{{}}}
\bibcite{Green:2012ud}{{66}{}{{}}{{}}}
\bibcite{Bratt:2010jn}{{67}{}{{}}{{}}}
\bibcite{Yamazaki:2009zq}{{68}{}{{}}{{}}}
\bibcite{Yamazaki:2008py}{{69}{}{{}}{{}}}
\bibcite{Edwards:2005ym}{{70}{}{{}}{{}}}
\bibcite{Capitani:2017qpc}{{71}{}{{}}{{}}}
\bibcite{Abdel-Rehim:2015owa}{{72}{}{{}}{{}}}
\bibcite{Horsley:2013ayv}{{73}{}{{}}{{}}}
\bibcite{Capitani:2012gj}{{74}{}{{}}{{}}}
\bibcite{Alexandrou:2011nr}{{75}{}{{}}{{}}}
\bibcite{Lin:2008uz}{{76}{}{{}}{{}}}
\bibcite{Khan:2006de}{{77}{}{{}}{{}}}
\bibcite{Bhattacharya:2013ehc}{{78}{}{{}}{{}}}
\bibcite{Green:2012ej}{{79}{}{{}}{{}}}
\bibcite{Bhattacharya:2015esa}{{80}{}{{}}{{}}}
\bibcite{Aoki:2010xg}{{81}{}{{}}{{}}}
\bibcite{Ashman:1987hv}{{82}{}{{}}{{}}}
\bibcite{Ji:1996ek}{{83}{}{{}}{{}}}
\bibcite{Jaffe:1989jz}{{84}{}{{}}{{}}}
\bibcite{Pospelov:2005pr}{{85}{}{{}}{{}}}
\bibcite{Baker:2006ts}{{86}{}{{}}{{}}}
\bibcite{Dudek:2012vr}{{87}{}{{}}{{}}}
\bibcite{Ye:2016prn}{{88}{}{{}}{{}}}
\bibcite{Radici:2018iag}{{89}{}{{}}{{}}}
\bibcite{Lin:2017stx}{{90}{}{{}}{{}}}
\bibcite{Lin:2018obj}{{91}{}{{}}{{}}}
\bibcite{Gong:2015iir}{{92}{}{{}}{{}}}
\bibcite{Engelhardt:2012gd}{{93}{}{{}}{{}}}
\bibcite{Alexandrou:2017oeh}{{94}{}{{}}{{}}}
\bibcite{Yang:2015uis}{{95}{}{{}}{{}}}
\bibcite{Abdel-Rehim:2016won}{{96}{}{{}}{{}}}
\bibcite{Oksuzian:2012rzb}{{97}{}{{}}{{}}}
\bibcite{Gong:2013vja}{{98}{}{{}}{{}}}
\bibcite{Ling:2017jyz}{{99}{}{{}}{{}}}
\bibcite{Alexandrou:2017xwd}{{100}{}{{}}{{}}}
\bibcite{Alexandrou:2014sha}{{101}{}{{}}{{}}}
\bibcite{Durr:2015dna}{{102}{}{{}}{{}}}
\bibcite{Durr:2011mp}{{103}{}{{}}{{}}}
\bibcite{Horsley:2011wr}{{104}{}{{}}{{}}}
\bibcite{Bali:2012qs}{{105}{}{{}}{{}}}
\bibcite{Gupta:2018lvp}{{106}{}{{}}{{}}}
\bibstyle{JHEP}
\providecommand\NAT@force@numbers{}\NAT@force@numbers
