%!PS-Adobe-2.0 EPSF-1.2
%%BoundingBox: 29 21 508 425
%%Title: alpha_eff_from_R4_mueq2mh_150619.eps
%%Creator: roger@dirac with xmgr
%%CreationDate: Fri Jun 19 12:26:07 2015
%%EndComments
80 dict begin
/Pat0 { 0.000000 setgray } def
/Pat1 { 0.062500 setgray } def
/Pat2 { 0.125000 setgray } def
/Pat3 { 0.187500 setgray } def
/Pat4 { 0.250000 setgray } def
/Pat5 { 0.312500 setgray } def
/Pat6 { 0.375000 setgray } def
/Pat7 { 0.437500 setgray } def
/Pat8 { 0.500000 setgray } def
/Pat9 { 0.562500 setgray } def
/Pat10 { 0.625000 setgray } def
/Pat11 { 0.687500 setgray } def
/Pat12 { 0.750000 setgray } def
/Pat13 { 0.812500 setgray } def
/Pat14 { 0.875000 setgray } def
/Pat15 { 0.937500 setgray } def
/setpattern { } def
/m {moveto} bind def
/l {lineto} bind def
/s {stroke} bind def
% Symbol fill
/f { gsave fill grestore stroke } bind def
% Opaque symbol
/o { gsave 1.000000 1.000000 1.000000 setrgbcolor
     fill grestore stroke } bind def
% Circle symbol
/a { 3 -1 roll 0 360 arc } bind def
/da { a s } bind def
/fa { a f } bind def
/oa { a o } bind def
% Square symbol
/sq { moveto dup dup rmoveto 2 mul
      dup neg 0 rlineto dup neg 0 exch rlineto
      0 rlineto closepath } bind def
/dsq { sq s } bind def
/fsq { sq f } bind def
/osq { sq o } bind def
% Triangle symbols
/t1 { moveto dup 0 exch rmoveto
      dup neg dup 2 mul rlineto 2 mul 0 rlineto
      closepath } bind def
/dt1 { t1 s } bind def
/ft1 { t1 f } bind def
/ot1 { t1 o } bind def
/t2 { moveto dup neg 0 rmoveto
      dup dup 2 mul exch neg rlineto
      2 mul 0 exch rlineto closepath } bind def
/dt2 { t2 s } bind def
/ft2 { t2 f } bind def
/ot2 { t2 o } bind def
/t3 { moveto dup neg 0 exch rmoveto
      dup dup 2 mul rlineto neg 2 mul 0 rlineto
      closepath } bind def
/dt3 { t3 s } bind def
/ft3 { t3 f } bind def
/ot3 { t3 o } bind def
/t4 { moveto dup 0 rmoveto
      dup dup -2 mul exch rlineto
      -2 mul 0 exch rlineto closepath } bind def
/dt4 { t4 s } bind def
/ft4 { t4 f } bind def
/ot4 { t4 o } bind def
% Diamond symbol
/di { moveto dup 0 exch rmoveto
      dup neg dup rlineto dup dup neg rlineto
      dup dup rlineto closepath } bind def
/ddi { di s } bind def
/fdi { di f } bind def
/odi { di o } bind def
% Plus symbol
/pl { dup 0 rmoveto dup -2 mul 0 rlineto
      dup dup rmoveto -2 mul 0 exch rlineto
    } bind def
/dpl { m pl s } bind def
% x symbol
/x { dup dup rmoveto dup -2 mul dup rlineto
     2 mul dup 0 rmoveto dup neg exch rlineto
   } bind def
/dx { m x s } bind def
% Splat symbol
/dsp { m dup pl dup 0 exch rmoveto 0.707 mul x s
     } bind def
/RJ {
 stringwidth neg exch neg exch
 rmoveto
} bind def
/CS {
 stringwidth
 2 div neg exch 2 div neg exch
 rmoveto
} bind def
0.24 0.24 scale
1 setlinecap

	mark             
	/ISOLatin1Encoding 
	  8#000 1 8#054 {StandardEncoding exch get} for 
	  /minus 
	  8#056 1 8#217 {StandardEncoding exch get} for 
	  /dotlessi 
	  8#301 1 8#317 {StandardEncoding exch get} for 
	  /space /exclamdown /cent /sterling /currency /yen /brokenbar /section 
	  /dieresis /copyright /ordfeminine /guillemotleft /logicalnot /hyphen 
	  /registered /macron /degree /plusminus /twosuperior /threesuperior /acute 
	  /mu /paragraph /periodcentered /cedilla /onesuperior /ordmasculine 
	  /guillemotright /onequarter /onehalf /threequarters /questiondown /Agrave 
	  /Aacute /Acircumflex /Atilde /Adieresis /Aring /AE /Ccedilla /Egrave /Eacute
	  /Ecircumflex /Edieresis /Igrave /Iacute /Icircumflex /Idieresis /Eth /Ntilde
	  /Ograve /Oacute /Ocircumflex /Otilde /Odieresis /multiply /Oslash /Ugrave 
	  /Uacute /Ucircumflex /Udieresis /Yacute /Thorn /germandbls /agrave /aacute 
	  /acircumflex /atilde /adieresis /aring /ae /ccedilla /egrave /eacute 
	  /ecircumflex /edieresis /igrave /iacute /icircumflex /idieresis /eth /ntilde
	  /ograve /oacute /ocircumflex /otilde /odieresis /divide /oslash /ugrave 
	  /uacute /ucircumflex /udieresis /yacute /thorn /ydieresis 
	  /ISOLatin1Encoding where not {256 array astore def} if 
	 cleartomark 

	/makeISOEncoded 
	{ findfont /curfont exch def 
	  /newfont curfont maxlength dict def  
	  /ISOLatin1 (-ISOLatin1) def
	  /curfontname curfont /FontName get dup length string cvs def 
	  /newfontname curfontname length ISOLatin1 length add string 
    	 dup 0                  curfontname putinterval 
    	 dup curfontname length ISOLatin1   putinterval 
	  def 
	  curfont   
	  { exch dup /FID ne  
    	{ dup /Encoding eq  
    	  { exch pop ISOLatin1Encoding exch }  
    	  if  
    	  dup /FontName eq  
    	  { exch pop newfontname exch }  
    	  if  
    	  exch newfont 3 1 roll put  
    	}  
    	{ pop pop }  
    	ifelse  
	  }  
	  forall 
	  newfontname newfont definefont 
	} def 

	/Times-Roman makeISOEncoded pop 
	/Times-Bold makeISOEncoded pop 
	/Times-Italic makeISOEncoded pop 
	/Times-BoldItalic makeISOEncoded pop 
	/Helvetica makeISOEncoded pop 
	/Helvetica-Bold makeISOEncoded pop 
	/Helvetica-Oblique makeISOEncoded pop 
	/Helvetica-BoldOblique makeISOEncoded pop 
s
0.000000 0.000000 0.000000 setrgbcolor
1 setlinewidth
/Times-Italic-ISOLatin1 findfont 60 scalefont setfont
[] 0 setdash
407 347 m
407 357 l
545 347 m
545 357 l
684 347 m
684 357 l
823 347 m
823 357 l
962 347 m
962 357 l
1101 347 m
1101 357 l
1240 347 m
1240 357 l
1378 347 m
1378 357 l
1517 347 m
1517 357 l
1656 347 m
1656 357 l
1795 347 m
1795 357 l
1934 347 m
1934 357 l
2073 347 m
2073 357 l
407 1736 m
407 1726 l
545 1736 m
545 1726 l
684 1736 m
684 1726 l
823 1736 m
823 1726 l
962 1736 m
962 1726 l
1101 1736 m
1101 1726 l
1240 1736 m
1240 1726 l
1378 1736 m
1378 1726 l
1517 1736 m
1517 1726 l
1656 1736 m
1656 1726 l
1795 1736 m
1795 1726 l
1934 1736 m
1934 1726 l
2073 1736 m
2073 1726 l
s
407 347 m
407 367 l
962 347 m
962 367 l
1517 347 m
1517 367 l
2073 347 m
2073 367 l
407 1736 m
407 1716 l
962 1736 m
962 1716 l
1517 1736 m
1517 1716 l
2073 1736 m
2073 1716 l
/Times-Italic-ISOLatin1 findfont 60 scalefont setfont
/Helvetica-ISOLatin1 findfont 60 scalefont setfont
s
407 297 m
gsave
407 297 translate
0 rotate
0 -20  m
(2.0) CS
(2.0) show
grestore
newpath
962 297 m
gsave
962 297 translate
0 rotate
0 -20  m
(4.0) CS
(4.0) show
grestore
newpath
1517 297 m
gsave
1517 297 translate
0 rotate
0 -20  m
(6.0) CS
(6.0) show
grestore
newpath
2073 297 m
gsave
2073 297 translate
0 rotate
0 -20  m
(8.0) CS
(8.0) show
grestore
newpath
/Helvetica-ISOLatin1 findfont 60 scalefont setfont
1240 197 m
gsave
1240 197 translate
0 rotate
0 0  m
(w0mh) CS
(w) show
/Helvetica-ISOLatin1 findfont 35 scalefont setfont
0 -17 rmoveto
(0) show
/Helvetica-ISOLatin1 findfont 60 scalefont setfont
0 17 rmoveto
(m) show
/Helvetica-ISOLatin1 findfont 35 scalefont setfont
0 -17 rmoveto
/Symbol findfont 
35 scalefont
 setfont
(h) show
/Helvetica-ISOLatin1 findfont 35 scalefont setfont
/Helvetica-ISOLatin1 findfont 60 scalefont setfont
0 17 rmoveto
() show
grestore
newpath
407 347 m
417 347 l
407 378 m
417 378 l
407 409 m
417 409 l
407 440 m
417 440 l
407 471 m
417 471 l
407 501 m
417 501 l
407 532 m
417 532 l
407 563 m
417 563 l
407 594 m
417 594 l
407 625 m
417 625 l
407 656 m
417 656 l
407 687 m
417 687 l
407 717 m
417 717 l
407 748 m
417 748 l
407 779 m
417 779 l
407 810 m
417 810 l
407 841 m
417 841 l
407 872 m
417 872 l
407 903 m
417 903 l
407 933 m
417 933 l
407 964 m
417 964 l
407 995 m
417 995 l
407 1026 m
417 1026 l
407 1057 m
417 1057 l
407 1088 m
417 1088 l
407 1119 m
417 1119 l
407 1150 m
417 1150 l
407 1180 m
417 1180 l
407 1211 m
417 1211 l
407 1242 m
417 1242 l
407 1273 m
417 1273 l
407 1304 m
417 1304 l
407 1335 m
417 1335 l
407 1366 m
417 1366 l
407 1396 m
417 1396 l
407 1427 m
417 1427 l
407 1458 m
417 1458 l
407 1489 m
417 1489 l
407 1520 m
417 1520 l
407 1551 m
417 1551 l
407 1582 m
417 1582 l
407 1612 m
417 1612 l
407 1643 m
417 1643 l
407 1674 m
417 1674 l
407 1705 m
417 1705 l
407 1736 m
417 1736 l
2073 347 m
2063 347 l
2073 378 m
2063 378 l
2073 409 m
2063 409 l
2073 440 m
2063 440 l
2073 471 m
2063 471 l
2073 501 m
2063 501 l
2073 532 m
2063 532 l
2073 563 m
2063 563 l
2073 594 m
2063 594 l
2073 625 m
2063 625 l
2073 656 m
2063 656 l
2073 687 m
2063 687 l
2073 717 m
2063 717 l
2073 748 m
2063 748 l
2073 779 m
2063 779 l
2073 810 m
2063 810 l
2073 841 m
2063 841 l
2073 872 m
2063 872 l
2073 903 m
2063 903 l
2073 933 m
2063 933 l
2073 964 m
2063 964 l
2073 995 m
2063 995 l
2073 1026 m
2063 1026 l
2073 1057 m
2063 1057 l
2073 1088 m
2063 1088 l
2073 1119 m
2063 1119 l
2073 1150 m
2063 1150 l
2073 1180 m
2063 1180 l
2073 1211 m
2063 1211 l
2073 1242 m
2063 1242 l
2073 1273 m
2063 1273 l
2073 1304 m
2063 1304 l
2073 1335 m
2063 1335 l
2073 1366 m
2063 1366 l
2073 1396 m
2063 1396 l
2073 1427 m
2063 1427 l
2073 1458 m
2063 1458 l
2073 1489 m
2063 1489 l
2073 1520 m
2063 1520 l
2073 1551 m
2063 1551 l
2073 1582 m
2063 1582 l
2073 1612 m
2063 1612 l
2073 1643 m
2063 1643 l
2073 1674 m
2063 1674 l
2073 1705 m
2063 1705 l
2073 1736 m
2063 1736 l
s
407 347 m
427 347 l
407 501 m
427 501 l
407 656 m
427 656 l
407 810 m
427 810 l
407 964 m
427 964 l
407 1119 m
427 1119 l
407 1273 m
427 1273 l
407 1427 m
427 1427 l
407 1582 m
427 1582 l
407 1736 m
427 1736 l
2073 347 m
2053 347 l
2073 501 m
2053 501 l
2073 656 m
2053 656 l
2073 810 m
2053 810 l
2073 964 m
2053 964 l
2073 1119 m
2053 1119 l
2073 1273 m
2053 1273 l
2073 1427 m
2053 1427 l
2073 1582 m
2053 1582 l
2073 1736 m
2053 1736 l
/Helvetica-ISOLatin1 findfont 60 scalefont setfont
s
369 347 m
gsave
369 347 translate
0 rotate
0 -20  m
(0.00) RJ
(0.00) show
grestore
newpath
369 501 m
gsave
369 501 translate
0 rotate
0 -20  m
(0.05) RJ
(0.05) show
grestore
newpath
369 656 m
gsave
369 656 translate
0 rotate
0 -20  m
(0.10) RJ
(0.10) show
grestore
newpath
369 810 m
gsave
369 810 translate
0 rotate
0 -20  m
(0.15) RJ
(0.15) show
grestore
newpath
369 964 m
gsave
369 964 translate
0 rotate
0 -20  m
(0.20) RJ
(0.20) show
grestore
newpath
369 1119 m
gsave
369 1119 translate
0 rotate
0 -20  m
(0.25) RJ
(0.25) show
grestore
newpath
369 1273 m
gsave
369 1273 translate
0 rotate
0 -20  m
(0.30) RJ
(0.30) show
grestore
newpath
369 1427 m
gsave
369 1427 translate
0 rotate
0 -20  m
(0.35) RJ
(0.35) show
grestore
newpath
369 1582 m
gsave
369 1582 translate
0 rotate
0 -20  m
(0.40) RJ
(0.40) show
grestore
newpath
369 1736 m
gsave
369 1736 translate
0 rotate
0 -20  m
(0.45) RJ
(0.45) show
grestore
newpath
/Helvetica-ISOLatin1 findfont 60 scalefont setfont
196 1041 m
gsave
196 1041 translate
90 rotate
0 0  m
(aeff for R4) CS
/Symbol findfont 
60 scalefont
 setfont
(a) show
/Helvetica-ISOLatin1 findfont 60 scalefont setfont
/Helvetica-ISOLatin1 findfont 35 scalefont setfont
0 -17 rmoveto
(eff) show
/Helvetica-ISOLatin1 findfont 60 scalefont setfont
0 17 rmoveto
( for R) show
/Helvetica-ISOLatin1 findfont 35 scalefont setfont
0 -17 rmoveto
(4) show
/Helvetica-ISOLatin1 findfont 60 scalefont setfont
0 17 rmoveto
() show
grestore
newpath
/Helvetica-ISOLatin1 findfont 55 scalefont setfont
1.000000 0.000000 0.000000 setrgbcolor
15 538 1023 fsq
15 571 961 fsq
15 543 1030 fsq
15 573 982 fsq
15 557 1113 fsq
15 571 1088 fsq
15 554 1135 fsq
15 571 1103 fsq
15 681 933 fsq
15 567 1120 fsq
15 856 894 fsq
15 959 812 fsq
15 866 894 fsq
15 969 811 fsq
15 1293 770 fsq
15 1449 707 fsq
15 1601 689 fsq
15 1747 465 fsq
/Helvetica-ISOLatin1 findfont 60 scalefont setfont
0.000000 0.000000 0.000000 setrgbcolor
/Helvetica-ISOLatin1 findfont 55 scalefont setfont
0.333333 0.752941 0.203922 setrgbcolor
18 572 1234 oa
18 640 1131 oa
18 750 997 oa
18 572 1245 oa
18 648 1130 oa
18 758 997 oa
18 563 1345 oa
18 572 1331 oa
18 796 1075 oa
18 967 945 oa
18 1132 847 oa
/Helvetica-ISOLatin1 findfont 60 scalefont setfont
0.000000 0.000000 0.000000 setrgbcolor
407 347 m
407 1736 l
2073 1736 l
2073 347 l
407 347 l
s
/Helvetica-ISOLatin1 findfont 60 scalefont setfont
121 109 m
gsave
121 109 translate
0 rotate
0 -20  m
(Fri Jun 19 12:25:55 2015) show
grestore
newpath
end
showpage
%%Trailer

